<?xml version="1.0" encoding="UTF-8" standalone="no"?>
<svg
   xmlns:dc="http://purl.org/dc/elements/1.1/"
   xmlns:cc="http://creativecommons.org/ns#"
   xmlns:rdf="http://www.w3.org/1999/02/22-rdf-syntax-ns#"
   xmlns:svg="http://www.w3.org/2000/svg"
   xmlns="http://www.w3.org/2000/svg"
   xmlns:sodipodi="http://sodipodi.sourceforge.net/DTD/sodipodi-0.dtd"
   xmlns:inkscape="http://www.inkscape.org/namespaces/inkscape"
   width="829pt"
   height="240pt"
   viewBox="0 0 829 240"
   version="1.1"
   id="svg2"
   inkscape:version="0.91 r13725"
   sodipodi:docname="ImsLogo.svg">
  <metadata
     id="metadata42">
    <rdf:RDF>
      <cc:Work
         rdf:about="">
        <dc:format>image/svg+xml</dc:format>
        <dc:type
           rdf:resource="http://purl.org/dc/dcmitype/StillImage" />
        <dc:title></dc:title>
      </cc:Work>
    </rdf:RDF>
  </metadata>
  <defs
     id="defs40" />
  <sodipodi:namedview
     pagecolor="#beffff"
     bordercolor="#666666"
     borderopacity="1"
     objecttolerance="10"
     gridtolerance="10"
     guidetolerance="10"
     inkscape:pageopacity="0"
     inkscape:pageshadow="2"
     inkscape:window-width="1920"
     inkscape:window-height="1137"
     id="namedview38"
     showgrid="false"
     inkscape:zoom="1.2037022"
     inkscape:cx="415.49921"
     inkscape:cy="180.79047"
     inkscape:window-x="-8"
     inkscape:window-y="-8"
     inkscape:window-maximized="1"
     inkscape:current-layer="svg2" />
  <path
     fill="#0074e5"
     d=" M 0.00 0.00 L 240.07 0.00 C 240.07 22.69 240.06 45.38 240.07 68.06 C 224.01 68.07 207.94 68.05 191.88 68.07 C 190.68 63.80 189.57 59.51 188.37 55.24 C 187.03 59.47 185.88 63.76 184.80 68.06 C 181.14 68.07 177.48 68.06 173.82 68.06 C 171.03 57.01 168.55 45.88 165.60 34.86 C 162.83 45.84 160.08 56.83 157.58 67.88 C 156.12 67.96 154.67 68.03 153.22 68.11 C 150.18 52.38 147.15 36.63 143.64 20.99 C 140.34 36.65 137.32 52.37 134.05 68.04 C 133.19 68.06 131.45 68.09 130.59 68.11 C 127.18 50.02 124.41 31.80 120.65 13.78 C 117.34 31.87 114.25 49.99 110.90 68.07 C 109.72 68.06 108.53 68.05 107.35 68.04 C 104.17 52.36 101.35 36.59 97.76 20.99 C 94.41 36.64 91.49 52.39 88.22 68.07 C 86.86 68.06 85.50 68.06 84.13 68.06 C 81.28 57.00 78.84 45.84 75.84 34.82 C 73.12 45.89 70.37 56.95 67.78 68.05 C 64.12 68.06 60.45 68.07 56.79 68.07 C 55.63 63.79 54.47 59.52 53.26 55.26 C 51.91 59.47 50.77 63.74 49.77 68.05 C 33.18 68.09 16.59 68.05 0.00 68.06 L 0.00 0.00 Z"
     id="path4" />
  <path
     d="m 240.07,0 c 0,55.728723 -0.01,194.8061 -0.01,240 0.01,-22.69 0,-45.38 0.01,-68.06 -24.37,0 -48.73,-0.01 -73.1,0 -0.49,3.82 -1.06,7.63 -1.62,11.44 -0.23,-3.82 -0.47,-7.64 -0.94,-11.44 -5.86,-0.01 -11.72,-0.01 -17.57,0 -1.35,11 -1.42,22.14 -3.43,33.05 -0.67,-11 -1.97,-21.95 -2.71,-32.95 -5.31,-0.15 -10.63,-0.11 -15.94,-0.1 -1.7,15.47 -2,31.08 -4.19,46.48 -1.22,-15.49 -2.57,-30.98 -3.67,-46.48 -5.3,-0.01 -10.59,-0.01 -15.89,0 -1.45,11.09 -1.52,22.33 -3.49,33.35 -0.58,-11.14 -2.09,-22.2 -2.62,-33.34 -5.93,-0.02 -11.85,-0.01 -17.78,-0.01 -0.31,3.82 -0.77,7.64 -1.36,11.44 -0.39,-3.81 -0.7,-7.62 -0.92,-11.43 C 49.89,171.92 24.95,171.94 0,171.93 l 0,-17.87 c 24.35,0 48.71,0.01 73.06,0 -2.6,-22.67 -4.41,-45.43 -6.9,-68.12 -2.73,-0.01 -5.45,-0.01 -8.18,0 -1.7,9.62 -3.05,19.29 -4.66,28.93 -2,-9.53 -3.24,-19.21 -4.72,-28.83 C 32.4,85.81 16.2,86 0,85.94 L 0,68.06 c 16.59,-0.01 33.18,0.03 49.77,-0.01 1,-4.31 2.14,-8.58 3.49,-12.79 1.21,4.26 2.37,8.53 3.53,12.81 3.66,0 7.33,-0.01 10.99,-0.02 2.59,-11.1 5.34,-22.16 8.06,-33.23 3,11.02 5.44,22.18 8.29,33.24 1.37,0 2.73,0 4.09,0.01 3.27,-15.68 6.19,-31.43 9.54,-47.08 3.59,15.6 6.41,31.37 9.59,47.05 1.18,0.01 2.37,0.02 3.55,0.03 3.35,-18.08 6.44,-36.2 9.75,-54.29 3.76,18.02 6.53,36.24 9.94,54.33 0.86,-0.02 2.6,-0.05 3.46,-0.07 3.27,-15.67 6.29,-31.39 9.59,-47.05 3.51,15.64 6.54,31.39 9.58,47.12 1.45,-0.08 2.9,-0.15 4.36,-0.23 2.5,-11.05 5.25,-22.04 8.02,-33.02 2.95,11.02 5.43,22.15 8.22,33.2 3.66,0 7.32,0.01 10.98,0 1.08,-4.3 2.23,-8.59 3.57,-12.82 1.2,4.27 2.31,8.56 3.51,12.83 16.06,-0.02 32.13,0 48.19,-0.01 -0.01,-22.68 0,-45.37 0,-68.06 z"
     id="path6"
     inkscape:connector-curvature="0"
     style="fill:#ffffff"
     sodipodi:nodetypes="cccccccccccccccccccccccccccccccccccccccccccccccccc" />
  <path
     fill="#c7c7c7"
     d=" M 262.75 0.00 L 333.02 0.00 C 333.09 80.00 333.03 160.00 333.05 240.00 L 262.88 240.00 C 262.57 160.00 262.84 80.00 262.75 0.00 Z"
     id="path8" />
  <path
     fill="#c7c7c7"
     d=" M 352.75 0.00 L 610.01 0.00 C 609.98 80.00 610.01 160.00 610.00 240.00 L 539.29 240.00 C 538.61 223.02 539.19 206.01 539.00 189.01 C 539.00 148.69 539.00 108.38 539.00 68.06 C 531.53 68.05 524.06 68.04 516.60 68.07 C 516.50 125.38 516.58 182.69 516.55 240.00 L 446.13 240.00 C 446.57 235.35 446.49 230.67 446.46 226.01 C 446.39 173.36 446.53 120.72 446.39 68.07 C 438.78 68.04 431.18 68.04 423.58 68.08 C 423.51 125.38 423.57 182.69 423.55 240.00 L 352.88 240.00 C 352.57 160.00 352.84 80.00 352.75 0.00 Z"
     id="path12" />
  <path
     fill="#c7c7c7"
     d=" M 631.95 0.00 L 829.00 0.00 L 829.00 66.12 C 786.43 66.46 743.86 66.10 701.29 66.29 C 701.22 73.50 701.23 80.70 701.27 87.90 C 743.85 88.00 786.42 87.92 829.00 87.94 L 829.00 240.00 L 631.98 240.00 C 631.92 217.92 631.94 195.85 631.96 173.77 C 674.77 173.71 717.58 173.79 760.39 173.73 C 760.48 166.49 760.46 159.25 760.43 152.01 C 717.61 151.97 674.79 152.03 631.97 151.98 C 631.91 101.32 631.96 50.66 631.95 0.00 Z"
     id="path16" />
  <path
     fill="#ff7f00"
     d=" M 0.00 85.94 C 16.20 86.00 32.40 85.81 48.60 86.04 C 50.08 95.66 51.32 105.34 53.32 114.87 C 54.93 105.23 56.28 95.56 57.98 85.94 C 60.71 85.93 63.43 85.93 66.16 85.94 C 68.65 108.63 70.46 131.39 73.06 154.06 C 48.71 154.07 24.35 154.06 0.00 154.06 L 0.00 85.94 Z"
     id="path24" />
  <path
     d="M 85.733076,85.343077 C 92.899908,151.91097 92.970727,151.93003 93.18,154.06 c -4.79,0.01 -9.58,0.01 -14.37,0 0.315023,-2.44645 0.278356,-2.4231 6.923076,-68.716923 z"
     id="path26"
     inkscape:connector-curvature="0"
     style="fill:#ff7f00"
     sodipodi:nodetypes="cccc" />
  <path
     fill="#ff7f00"
     d=" M 175.09 85.94 C 177.97 85.94 180.85 85.95 183.73 86.03 C 185.22 95.65 186.28 105.39 188.57 114.87 C 189.88 105.20 191.47 95.57 193.07 85.94 C 208.74 85.93 224.41 85.94 240.07 85.94 C 240.06 108.65 240.06 131.35 240.07 154.06 C 216.28 154.06 192.48 154.07 168.68 154.06 C 170.58 131.33 173.37 108.67 175.09 85.94 Z"
     id="path34" />
  <path
     fill="#0074e5"
     d=" M 0.00 171.93 C 24.95 171.94 49.89 171.92 74.84 171.95 C 75.06 175.76 75.37 179.57 75.76 183.38 C 76.35 179.58 76.81 175.76 77.12 171.94 C 83.05 171.94 88.97 171.93 94.90 171.95 C 95.43 183.09 96.94 194.15 97.52 205.29 C 99.49 194.27 99.56 183.03 101.01 171.94 C 106.31 171.93 111.60 171.93 116.90 171.94 C 118.00 187.44 119.35 202.93 120.57 218.42 C 122.76 203.02 123.06 187.41 124.76 171.94 C 130.07 171.93 135.39 171.89 140.70 172.04 C 141.44 183.04 142.74 193.99 143.41 204.99 C 145.42 194.08 145.49 182.94 146.84 171.94 C 152.69 171.93 158.55 171.93 164.41 171.94 C 164.88 175.74 165.12 179.56 165.35 183.38 C 165.91 179.57 166.48 175.76 166.97 171.94 C 191.34 171.93 215.70 171.94 240.07 171.94 C 240.06 194.62 240.07 217.31 240.06 240.00 L 0.00 240.00 L 0.00 171.93 Z"
     id="path36" />
  <path
     d="m 108.76755,85.34365 c 7.16684,66.5679 7.23766,66.58696 7.44693,68.71693 -4.79,0.01 -9.58,0.01 -14.37,0 0.31502,-2.44645 0.27835,-2.4231 6.92307,-68.71693 z"
     id="path26-1"
     inkscape:connector-curvature="0"
     style="fill:#ff7f00"
     sodipodi:nodetypes="cccc" />
  <path
     d="m 132.30537,85.345734 c 7.16683,66.567886 7.23765,66.586946 7.44693,68.716916 -4.79,0.01 -9.58,0.01 -14.37,0 0.31502,-2.44645 0.27836,-2.4231 6.92307,-68.716916 z"
     id="path26-7"
     inkscape:connector-curvature="0"
     style="fill:#ff7f00"
     sodipodi:nodetypes="cccc" />
  <path
     d="m 155.45121,85.246648 c 7.16683,66.567892 7.23765,66.586952 7.44692,68.716922 -4.79,0.01 -9.58,0.01 -14.37,0 0.31502,-2.44645 0.27836,-2.4231 6.92308,-68.716922 z"
     id="path26-4"
     inkscape:connector-curvature="0"
     style="fill:#ff7f00"
     sodipodi:nodetypes="cccc" />
</svg>
